%YAML 1.1
%TAG !u! tag:unity3d.com,2011:
--- !u!74 &7400000
AnimationClip:
  m_ObjectHideFlags: 0
  m_CorrespondingSourceObject: {fileID: 0}
  m_PrefabInstance: {fileID: 0}
  m_PrefabAsset: {fileID: 0}
  m_Name: damage
  serializedVersion: 6
  m_Legacy: 0
  m_Compressed: 0
  m_UseHighQualityCurve: 1
  m_RotationCurves: []
  m_CompressedRotationCurves: []
  m_EulerCurves: []
  m_PositionCurves: []
  m_ScaleCurves: []
  m_FloatCurves:
  - curve:
      serializedVersion: 2
      m_Curve:
      - serializedVersion: 3
        time: 0
        value: 1
        inSlope: Infinity
        outSlope: Infinity
        tangentMode: 103
        weightedMode: 0
        inWeight: 0
        outWeight: 0
      - serializedVersion: 3
        time: 0.24
        value: 0
        inSlope: Infinity
        outSlope: Infinity
        tangentMode: 103
        weightedMode: 0
        inWeight: 0
        outWeight: 0
      m_PreInfinity: 2
      m_PostInfinity: 2
      m_RotationOrder: 4
    attribute: takingDamageAnim
    path: 
    classID: 114
    script: {fileID: 11500000, guid: 5c9b57536a40e3749a3dc0ac73a460e3, type: 3}
  m_PPtrCurves:
  - curve:
    - time: 0
      value: {fileID: 370836429328893637, guid: 631aac5542754d244bdda767c0d8e710,
        type: 3}
    - time: 0.04
      value: {fileID: 4671811295830470272, guid: 631aac5542754d244bdda767c0d8e710,
        type: 3}
    - time: 0.08
      value: {fileID: 948163715620176575, guid: 631aac5542754d244bdda767c0d8e710,
        type: 3}
    - time: 0.12
      value: {fileID: -4805785122848415202, guid: 631aac5542754d244bdda767c0d8e710,
        type: 3}
    - time: 0.16
      value: {fileID: 1339527205791033982, guid: 631aac5542754d244bdda767c0d8e710,
        type: 3}
    - time: 0.2
      value: {fileID: 1590664526030685110, guid: 631aac5542754d244bdda767c0d8e710,
        type: 3}
    - time: 0.24
      value: {fileID: -6375434730729121783, guid: 631aac5542754d244bdda767c0d8e710,
        type: 3}
    attribute: m_Sprite
    path: 
    classID: 212
    script: {fileID: 0}
  m_SampleRate: 25
  m_WrapMode: 0
  m_Bounds:
    m_Center: {x: 0, y: 0, z: 0}
    m_Extent: {x: 0, y: 0, z: 0}
  m_ClipBindingConstant:
    genericBindings:
    - serializedVersion: 2
      path: 0
      attribute: 4139671999
      script: {fileID: 11500000, guid: 5c9b57536a40e3749a3dc0ac73a460e3, type: 3}
      typeID: 114
      customType: 0
      isPPtrCurve: 0
    - serializedVersion: 2
      path: 0
      attribute: 0
      script: {fileID: 0}
      typeID: 212
      customType: 23
      isPPtrCurve: 1
    pptrCurveMapping:
    - {fileID: 370836429328893637, guid: 631aac5542754d244bdda767c0d8e710, type: 3}
    - {fileID: 4671811295830470272, guid: 631aac5542754d244bdda767c0d8e710, type: 3}
    - {fileID: 948163715620176575, guid: 631aac5542754d244bdda767c0d8e710, type: 3}
    - {fileID: -4805785122848415202, guid: 631aac5542754d244bdda767c0d8e710, type: 3}
    - {fileID: 1339527205791033982, guid: 631aac5542754d244bdda767c0d8e710, type: 3}
    - {fileID: 1590664526030685110, guid: 631aac5542754d244bdda767c0d8e710, type: 3}
    - {fileID: -6375434730729121783, guid: 631aac5542754d244bdda767c0d8e710, type: 3}
  m_AnimationClipSettings:
    serializedVersion: 2
    m_AdditiveReferencePoseClip: {fileID: 0}
    m_AdditiveReferencePoseTime: 0
    m_StartTime: 0
    m_StopTime: 0.28
    m_OrientationOffsetY: 0
    m_Level: 0
    m_CycleOffset: 0
    m_HasAdditiveReferencePose: 0
    m_LoopTime: 0
    m_LoopBlend: 0
    m_LoopBlendOrientation: 0
    m_LoopBlendPositionY: 0
    m_LoopBlendPositionXZ: 0
    m_KeepOriginalOrientation: 0
    m_KeepOriginalPositionY: 1
    m_KeepOriginalPositionXZ: 0
    m_HeightFromFeet: 0
    m_Mirror: 0
  m_EditorCurves:
  - curve:
      serializedVersion: 2
      m_Curve:
      - serializedVersion: 3
        time: 0
        value: 1
        inSlope: Infinity
        outSlope: Infinity
        tangentMode: 103
        weightedMode: 0
        inWeight: 0
        outWeight: 0
      - serializedVersion: 3
        time: 0.24
        value: 0
        inSlope: Infinity
        outSlope: Infinity
        tangentMode: 103
        weightedMode: 0
        inWeight: 0
        outWeight: 0
      m_PreInfinity: 2
      m_PostInfinity: 2
      m_RotationOrder: 4
    attribute: takingDamageAnim
    path: 
    classID: 114
    script: {fileID: 11500000, guid: 5c9b57536a40e3749a3dc0ac73a460e3, type: 3}
  m_EulerEditorCurves: []
  m_HasGenericRootTransform: 0
  m_HasMotionFloatCurves: 0
  m_Events: []
