%YAML 1.1
%TAG !u! tag:unity3d.com,2011:
--- !u!114 &11400000
MonoBehaviour:
  m_ObjectHideFlags: 0
  m_CorrespondingSourceObject: {fileID: 0}
  m_PrefabInstance: {fileID: 0}
  m_PrefabAsset: {fileID: 0}
  m_GameObject: {fileID: 0}
  m_Enabled: 1
  m_EditorHideFlags: 0
  m_Script: {fileID: 11500000, guid: 49f4d8e90fd7eaa458cf816fb947d206, type: 3}
  m_Name: TripleBalls
  m_EditorClassIdentifier: 
  icon: {fileID: 21300000, guid: ee26da224f3a2554f95ce062c7c37a33, type: 3}
  ability: 3
  nomePT: Ataque Triplo
  nomeEN: Triple Attack
  conteudoPT: 
  conteudoEN: 
