%YAML 1.1
%TAG !u! tag:unity3d.com,2011:
--- !u!74 &7400000
AnimationClip:
  m_ObjectHideFlags: 0
  m_CorrespondingSourceObject: {fileID: 0}
  m_PrefabInstance: {fileID: 0}
  m_PrefabAsset: {fileID: 0}
  m_Name: SlimeAtk
  serializedVersion: 6
  m_Legacy: 0
  m_Compressed: 0
  m_UseHighQualityCurve: 1
  m_RotationCurves: []
  m_CompressedRotationCurves: []
  m_EulerCurves: []
  m_PositionCurves: []
  m_ScaleCurves: []
  m_FloatCurves: []
  m_PPtrCurves:
  - curve:
    - time: 0
      value: {fileID: 8808545954069617921, guid: 47913e7c77951264d83cfe0dcdc053ea,
        type: 3}
    - time: 0.083333336
      value: {fileID: 4236558876878595492, guid: 47913e7c77951264d83cfe0dcdc053ea,
        type: 3}
    - time: 0.16666667
      value: {fileID: -6455499275749386258, guid: 47913e7c77951264d83cfe0dcdc053ea,
        type: 3}
    - time: 0.25
      value: {fileID: 8592989053154250271, guid: 47913e7c77951264d83cfe0dcdc053ea,
        type: 3}
    - time: 0.33333334
      value: {fileID: -5829373057153875102, guid: 47913e7c77951264d83cfe0dcdc053ea,
        type: 3}
    - time: 0.41666666
      value: {fileID: 3767093584347496676, guid: 47913e7c77951264d83cfe0dcdc053ea,
        type: 3}
    - time: 0.5
      value: {fileID: 1007854701680413294, guid: 47913e7c77951264d83cfe0dcdc053ea,
        type: 3}
    - time: 0.5833333
      value: {fileID: -1173609111342480341, guid: 47913e7c77951264d83cfe0dcdc053ea,
        type: 3}
    - time: 0.6666667
      value: {fileID: -8520701348465529174, guid: 47913e7c77951264d83cfe0dcdc053ea,
        type: 3}
    - time: 0.75
      value: {fileID: -5335884558855159777, guid: 47913e7c77951264d83cfe0dcdc053ea,
        type: 3}
    - time: 0.8333333
      value: {fileID: 5851674060840035565, guid: 47913e7c77951264d83cfe0dcdc053ea,
        type: 3}
    - time: 0.9166667
      value: {fileID: -6915809034658663118, guid: 47913e7c77951264d83cfe0dcdc053ea,
        type: 3}
    - time: 1
      value: {fileID: -4229307828291004706, guid: 47913e7c77951264d83cfe0dcdc053ea,
        type: 3}
    - time: 1.0833334
      value: {fileID: 1046916255168485250, guid: 47913e7c77951264d83cfe0dcdc053ea,
        type: 3}
    attribute: m_Sprite
    path: 
    classID: 212
    script: {fileID: 0}
  m_SampleRate: 12
  m_WrapMode: 0
  m_Bounds:
    m_Center: {x: 0, y: 0, z: 0}
    m_Extent: {x: 0, y: 0, z: 0}
  m_ClipBindingConstant:
    genericBindings:
    - serializedVersion: 2
      path: 0
      attribute: 0
      script: {fileID: 0}
      typeID: 212
      customType: 23
      isPPtrCurve: 1
    pptrCurveMapping:
    - {fileID: 8808545954069617921, guid: 47913e7c77951264d83cfe0dcdc053ea, type: 3}
    - {fileID: 4236558876878595492, guid: 47913e7c77951264d83cfe0dcdc053ea, type: 3}
    - {fileID: -6455499275749386258, guid: 47913e7c77951264d83cfe0dcdc053ea, type: 3}
    - {fileID: 8592989053154250271, guid: 47913e7c77951264d83cfe0dcdc053ea, type: 3}
    - {fileID: -5829373057153875102, guid: 47913e7c77951264d83cfe0dcdc053ea, type: 3}
    - {fileID: 3767093584347496676, guid: 47913e7c77951264d83cfe0dcdc053ea, type: 3}
    - {fileID: 1007854701680413294, guid: 47913e7c77951264d83cfe0dcdc053ea, type: 3}
    - {fileID: -1173609111342480341, guid: 47913e7c77951264d83cfe0dcdc053ea, type: 3}
    - {fileID: -8520701348465529174, guid: 47913e7c77951264d83cfe0dcdc053ea, type: 3}
    - {fileID: -5335884558855159777, guid: 47913e7c77951264d83cfe0dcdc053ea, type: 3}
    - {fileID: 5851674060840035565, guid: 47913e7c77951264d83cfe0dcdc053ea, type: 3}
    - {fileID: -6915809034658663118, guid: 47913e7c77951264d83cfe0dcdc053ea, type: 3}
    - {fileID: -4229307828291004706, guid: 47913e7c77951264d83cfe0dcdc053ea, type: 3}
    - {fileID: 1046916255168485250, guid: 47913e7c77951264d83cfe0dcdc053ea, type: 3}
  m_AnimationClipSettings:
    serializedVersion: 2
    m_AdditiveReferencePoseClip: {fileID: 0}
    m_AdditiveReferencePoseTime: 0
    m_StartTime: 0
    m_StopTime: 1.1666667
    m_OrientationOffsetY: 0
    m_Level: 0
    m_CycleOffset: 0
    m_HasAdditiveReferencePose: 0
    m_LoopTime: 1
    m_LoopBlend: 0
    m_LoopBlendOrientation: 0
    m_LoopBlendPositionY: 0
    m_LoopBlendPositionXZ: 0
    m_KeepOriginalOrientation: 0
    m_KeepOriginalPositionY: 1
    m_KeepOriginalPositionXZ: 0
    m_HeightFromFeet: 0
    m_Mirror: 0
  m_EditorCurves: []
  m_EulerEditorCurves: []
  m_HasGenericRootTransform: 0
  m_HasMotionFloatCurves: 0
  m_Events:
  - time: 0.75
    functionName: DamagePlayer
    data: 
    objectReferenceParameter: {fileID: 0}
    floatParameter: 0
    intParameter: 0
    messageOptions: 0
