%YAML 1.1
%TAG !u! tag:unity3d.com,2011:
--- !u!1 &811810154320642892
GameObject:
  m_ObjectHideFlags: 0
  m_CorrespondingSourceObject: {fileID: 0}
  m_PrefabInstance: {fileID: 0}
  m_PrefabAsset: {fileID: 0}
  serializedVersion: 6
  m_Component:
  - component: {fileID: 381915983185849888}
  - component: {fileID: 373806139068873082}
  - component: {fileID: 1519060515373794001}
  m_Layer: 31
  m_Name: Layer1
  m_TagString: Untagged
  m_Icon: {fileID: 0}
  m_NavMeshLayer: 0
  m_StaticEditorFlags: 0
  m_IsActive: 1
--- !u!4 &381915983185849888
Transform:
  m_ObjectHideFlags: 0
  m_CorrespondingSourceObject: {fileID: 0}
  m_PrefabInstance: {fileID: 0}
  m_PrefabAsset: {fileID: 0}
  m_GameObject: {fileID: 811810154320642892}
  m_LocalRotation: {x: -0, y: -0, z: -0, w: 1}
  m_LocalPosition: {x: 0, y: 0, z: 0}
  m_LocalScale: {x: 1, y: 1, z: 1}
  m_Children: []
  m_Father: {fileID: 5322084639915905799}
  m_RootOrder: 0
  m_LocalEulerAnglesHint: {x: 0, y: 0, z: 0}
--- !u!1839735485 &373806139068873082
Tilemap:
  m_ObjectHideFlags: 0
  m_CorrespondingSourceObject: {fileID: 0}
  m_PrefabInstance: {fileID: 0}
  m_PrefabAsset: {fileID: 0}
  m_GameObject: {fileID: 811810154320642892}
  m_Enabled: 1
  m_Tiles:
  - first: {x: -1, y: -5, z: 0}
    second:
      serializedVersion: 2
      m_TileIndex: 19
      m_TileSpriteIndex: 0
      m_TileMatrixIndex: 0
      m_TileColorIndex: 0
      m_TileObjectToInstantiateIndex: 65535
      m_AllTileFlags: 1073741826
  - first: {x: -1, y: -3, z: 0}
    second:
      serializedVersion: 2
      m_TileIndex: 16
      m_TileSpriteIndex: 16
      m_TileMatrixIndex: 0
      m_TileColorIndex: 0
      m_TileObjectToInstantiateIndex: 65535
      m_AllTileFlags: 1073741825
  - first: {x: 0, y: -3, z: 0}
    second:
      serializedVersion: 2
      m_TileIndex: 17
      m_TileSpriteIndex: 17
      m_TileMatrixIndex: 0
      m_TileColorIndex: 0
      m_TileObjectToInstantiateIndex: 65535
      m_AllTileFlags: 1073741825
  - first: {x: 1, y: -3, z: 0}
    second:
      serializedVersion: 2
      m_TileIndex: 18
      m_TileSpriteIndex: 18
      m_TileMatrixIndex: 0
      m_TileColorIndex: 0
      m_TileObjectToInstantiateIndex: 65535
      m_AllTileFlags: 1073741825
  - first: {x: -1, y: -2, z: 0}
    second:
      serializedVersion: 2
      m_TileIndex: 12
      m_TileSpriteIndex: 12
      m_TileMatrixIndex: 0
      m_TileColorIndex: 0
      m_TileObjectToInstantiateIndex: 65535
      m_AllTileFlags: 1073741825
  - first: {x: 0, y: -2, z: 0}
    second:
      serializedVersion: 2
      m_TileIndex: 13
      m_TileSpriteIndex: 13
      m_TileMatrixIndex: 0
      m_TileColorIndex: 0
      m_TileObjectToInstantiateIndex: 65535
      m_AllTileFlags: 1073741825
  - first: {x: 1, y: -2, z: 0}
    second:
      serializedVersion: 2
      m_TileIndex: 14
      m_TileSpriteIndex: 14
      m_TileMatrixIndex: 0
      m_TileColorIndex: 0
      m_TileObjectToInstantiateIndex: 65535
      m_AllTileFlags: 1073741825
  - first: {x: 2, y: -2, z: 0}
    second:
      serializedVersion: 2
      m_TileIndex: 15
      m_TileSpriteIndex: 15
      m_TileMatrixIndex: 0
      m_TileColorIndex: 0
      m_TileObjectToInstantiateIndex: 65535
      m_AllTileFlags: 1073741825
  - first: {x: -1, y: -1, z: 0}
    second:
      serializedVersion: 2
      m_TileIndex: 6
      m_TileSpriteIndex: 6
      m_TileMatrixIndex: 0
      m_TileColorIndex: 0
      m_TileObjectToInstantiateIndex: 65535
      m_AllTileFlags: 1073741825
  - first: {x: 0, y: -1, z: 0}
    second:
      serializedVersion: 2
      m_TileIndex: 7
      m_TileSpriteIndex: 7
      m_TileMatrixIndex: 0
      m_TileColorIndex: 0
      m_TileObjectToInstantiateIndex: 65535
      m_AllTileFlags: 1073741825
  - first: {x: 1, y: -1, z: 0}
    second:
      serializedVersion: 2
      m_TileIndex: 8
      m_TileSpriteIndex: 8
      m_TileMatrixIndex: 0
      m_TileColorIndex: 0
      m_TileObjectToInstantiateIndex: 65535
      m_AllTileFlags: 1073741825
  - first: {x: 2, y: -1, z: 0}
    second:
      serializedVersion: 2
      m_TileIndex: 9
      m_TileSpriteIndex: 9
      m_TileMatrixIndex: 0
      m_TileColorIndex: 0
      m_TileObjectToInstantiateIndex: 65535
      m_AllTileFlags: 1073741825
  - first: {x: 3, y: -1, z: 0}
    second:
      serializedVersion: 2
      m_TileIndex: 10
      m_TileSpriteIndex: 10
      m_TileMatrixIndex: 0
      m_TileColorIndex: 0
      m_TileObjectToInstantiateIndex: 65535
      m_AllTileFlags: 1073741825
  - first: {x: 4, y: -1, z: 0}
    second:
      serializedVersion: 2
      m_TileIndex: 11
      m_TileSpriteIndex: 11
      m_TileMatrixIndex: 0
      m_TileColorIndex: 0
      m_TileObjectToInstantiateIndex: 65535
      m_AllTileFlags: 1073741825
  - first: {x: -1, y: 0, z: 0}
    second:
      serializedVersion: 2
      m_TileIndex: 0
      m_TileSpriteIndex: 0
      m_TileMatrixIndex: 0
      m_TileColorIndex: 0
      m_TileObjectToInstantiateIndex: 65535
      m_AllTileFlags: 1073741825
  - first: {x: 0, y: 0, z: 0}
    second:
      serializedVersion: 2
      m_TileIndex: 1
      m_TileSpriteIndex: 1
      m_TileMatrixIndex: 0
      m_TileColorIndex: 0
      m_TileObjectToInstantiateIndex: 65535
      m_AllTileFlags: 1073741825
  - first: {x: 1, y: 0, z: 0}
    second:
      serializedVersion: 2
      m_TileIndex: 2
      m_TileSpriteIndex: 2
      m_TileMatrixIndex: 0
      m_TileColorIndex: 0
      m_TileObjectToInstantiateIndex: 65535
      m_AllTileFlags: 1073741825
  - first: {x: 2, y: 0, z: 0}
    second:
      serializedVersion: 2
      m_TileIndex: 3
      m_TileSpriteIndex: 3
      m_TileMatrixIndex: 0
      m_TileColorIndex: 0
      m_TileObjectToInstantiateIndex: 65535
      m_AllTileFlags: 1073741825
  - first: {x: 3, y: 0, z: 0}
    second:
      serializedVersion: 2
      m_TileIndex: 4
      m_TileSpriteIndex: 4
      m_TileMatrixIndex: 0
      m_TileColorIndex: 0
      m_TileObjectToInstantiateIndex: 65535
      m_AllTileFlags: 1073741825
  - first: {x: 4, y: 0, z: 0}
    second:
      serializedVersion: 2
      m_TileIndex: 5
      m_TileSpriteIndex: 5
      m_TileMatrixIndex: 0
      m_TileColorIndex: 0
      m_TileObjectToInstantiateIndex: 65535
      m_AllTileFlags: 1073741825
  m_AnimatedTiles: {}
  m_TileAssetArray:
  - m_RefCount: 1
    m_Data: {fileID: 11400000, guid: 39c09c6f99b5e114c91d19f9a551b10f, type: 2}
  - m_RefCount: 1
    m_Data: {fileID: 11400000, guid: 35a8c702aae46a947a35887f6de20c8b, type: 2}
  - m_RefCount: 1
    m_Data: {fileID: 11400000, guid: e926b1175fb303e4d90f006c5526bf01, type: 2}
  - m_RefCount: 1
    m_Data: {fileID: 11400000, guid: 6860271624f1d1f49b80159ee1f7e2ff, type: 2}
  - m_RefCount: 1
    m_Data: {fileID: 11400000, guid: 66a97a00365dbde4db2ba8fe73855be5, type: 2}
  - m_RefCount: 1
    m_Data: {fileID: 11400000, guid: e842547da6b28e74eab3336f9af77e88, type: 2}
  - m_RefCount: 1
    m_Data: {fileID: 11400000, guid: 3780092863c13ba4081f0712bae90f91, type: 2}
  - m_RefCount: 1
    m_Data: {fileID: 11400000, guid: 69bd5e4ae8f487d42a9d941391c6975f, type: 2}
  - m_RefCount: 1
    m_Data: {fileID: 11400000, guid: 85f9ac41e6cdf00439203b4f8dc986cc, type: 2}
  - m_RefCount: 1
    m_Data: {fileID: 11400000, guid: d90e0f548da108242bc940867f8b28c3, type: 2}
  - m_RefCount: 1
    m_Data: {fileID: 11400000, guid: 4240051645fc3a3418ac22e835235298, type: 2}
  - m_RefCount: 1
    m_Data: {fileID: 11400000, guid: 00954a103d0341040a360372692ac445, type: 2}
  - m_RefCount: 1
    m_Data: {fileID: 11400000, guid: 4c651759e2e84ce45b16ac4507c83a3b, type: 2}
  - m_RefCount: 1
    m_Data: {fileID: 11400000, guid: 33fbfda7abd83744e85c6875358bf559, type: 2}
  - m_RefCount: 1
    m_Data: {fileID: 11400000, guid: 01f3012e2c2ab104db1764b91a635b8a, type: 2}
  - m_RefCount: 1
    m_Data: {fileID: 11400000, guid: 448061e4c9a280b46aa5e028fb131179, type: 2}
  - m_RefCount: 1
    m_Data: {fileID: 11400000, guid: 9a631776e5ecc874c9595a743169c4ca, type: 2}
  - m_RefCount: 1
    m_Data: {fileID: 11400000, guid: 7847fb421c3f2e146a23c143151d1bed, type: 2}
  - m_RefCount: 1
    m_Data: {fileID: 11400000, guid: ec43d78c08c06ef4a884156f1f537e60, type: 2}
  - m_RefCount: 1
    m_Data: {fileID: 11400000, guid: cb40351dd2e8c4f44926b3eaa712e2d9, type: 2}
  m_TileSpriteArray:
  - m_RefCount: 2
    m_Data: {fileID: 5663061954668274717, guid: d7deffe42f520534a9ab45743bef8009,
      type: 3}
  - m_RefCount: 1
    m_Data: {fileID: 6007627129536956325, guid: d7deffe42f520534a9ab45743bef8009,
      type: 3}
  - m_RefCount: 1
    m_Data: {fileID: -7486092956772349302, guid: d7deffe42f520534a9ab45743bef8009,
      type: 3}
  - m_RefCount: 1
    m_Data: {fileID: -3627264120405484348, guid: d7deffe42f520534a9ab45743bef8009,
      type: 3}
  - m_RefCount: 1
    m_Data: {fileID: -4815885190406460031, guid: d7deffe42f520534a9ab45743bef8009,
      type: 3}
  - m_RefCount: 1
    m_Data: {fileID: 7477116942032994148, guid: d7deffe42f520534a9ab45743bef8009,
      type: 3}
  - m_RefCount: 1
    m_Data: {fileID: -396035294860175646, guid: d7deffe42f520534a9ab45743bef8009,
      type: 3}
  - m_RefCount: 1
    m_Data: {fileID: 8233071653059976297, guid: d7deffe42f520534a9ab45743bef8009,
      type: 3}
  - m_RefCount: 1
    m_Data: {fileID: -7775419718026629507, guid: d7deffe42f520534a9ab45743bef8009,
      type: 3}
  - m_RefCount: 1
    m_Data: {fileID: -781294158744790408, guid: d7deffe42f520534a9ab45743bef8009,
      type: 3}
  - m_RefCount: 1
    m_Data: {fileID: 9061651696941551919, guid: d7deffe42f520534a9ab45743bef8009,
      type: 3}
  - m_RefCount: 1
    m_Data: {fileID: -6985117363303071740, guid: d7deffe42f520534a9ab45743bef8009,
      type: 3}
  - m_RefCount: 1
    m_Data: {fileID: 8642771837104280003, guid: d7deffe42f520534a9ab45743bef8009,
      type: 3}
  - m_RefCount: 1
    m_Data: {fileID: -1762573714345474896, guid: d7deffe42f520534a9ab45743bef8009,
      type: 3}
  - m_RefCount: 1
    m_Data: {fileID: 11442893378838041, guid: d7deffe42f520534a9ab45743bef8009, type: 3}
  - m_RefCount: 1
    m_Data: {fileID: -317771678647371661, guid: d7deffe42f520534a9ab45743bef8009,
      type: 3}
  - m_RefCount: 1
    m_Data: {fileID: -2426843357703420916, guid: d7deffe42f520534a9ab45743bef8009,
      type: 3}
  - m_RefCount: 1
    m_Data: {fileID: -3642208251427772964, guid: d7deffe42f520534a9ab45743bef8009,
      type: 3}
  - m_RefCount: 1
    m_Data: {fileID: 3985221016008397036, guid: d7deffe42f520534a9ab45743bef8009,
      type: 3}
  m_TileMatrixArray:
  - m_RefCount: 20
    m_Data:
      e00: 1
      e01: 0
      e02: 0
      e03: 0
      e10: 0
      e11: 1
      e12: 0
      e13: 0
      e20: 0
      e21: 0
      e22: 1
      e23: 0
      e30: 0
      e31: 0
      e32: 0
      e33: 1
  m_TileColorArray:
  - m_RefCount: 20
    m_Data: {r: 1, g: 1, b: 1, a: 1}
  m_TileObjectToInstantiateArray: []
  m_AnimationFrameRate: 1
  m_Color: {r: 1, g: 1, b: 1, a: 1}
  m_Origin: {x: -1, y: -5, z: 0}
  m_Size: {x: 6, y: 6, z: 1}
  m_TileAnchor: {x: 0.5, y: 0.5, z: 0}
  m_TileOrientation: 0
  m_TileOrientationMatrix:
    e00: 1
    e01: 0
    e02: 0
    e03: 0
    e10: 0
    e11: 1
    e12: 0
    e13: 0
    e20: 0
    e21: 0
    e22: 1
    e23: 0
    e30: 0
    e31: 0
    e32: 0
    e33: 1
--- !u!483693784 &1519060515373794001
TilemapRenderer:
  m_ObjectHideFlags: 0
  m_CorrespondingSourceObject: {fileID: 0}
  m_PrefabInstance: {fileID: 0}
  m_PrefabAsset: {fileID: 0}
  m_GameObject: {fileID: 811810154320642892}
  m_Enabled: 0
  m_CastShadows: 0
  m_ReceiveShadows: 0
  m_DynamicOccludee: 0
  m_MotionVectors: 1
  m_LightProbeUsage: 0
  m_ReflectionProbeUsage: 0
  m_RayTracingMode: 0
  m_RenderingLayerMask: 1
  m_RendererPriority: 0
  m_Materials:
  - {fileID: 10754, guid: 0000000000000000f000000000000000, type: 0}
  m_StaticBatchInfo:
    firstSubMesh: 0
    subMeshCount: 0
  m_StaticBatchRoot: {fileID: 0}
  m_ProbeAnchor: {fileID: 0}
  m_LightProbeVolumeOverride: {fileID: 0}
  m_ScaleInLightmap: 1
  m_ReceiveGI: 1
  m_PreserveUVs: 0
  m_IgnoreNormalsForChartDetection: 0
  m_ImportantGI: 0
  m_StitchLightmapSeams: 1
  m_SelectedEditorRenderState: 0
  m_MinimumChartSize: 4
  m_AutoUVMaxDistance: 0.5
  m_AutoUVMaxAngle: 89
  m_LightmapParameters: {fileID: 0}
  m_SortingLayerID: 0
  m_SortingLayer: 0
  m_SortingOrder: 0
  m_ChunkSize: {x: 32, y: 32, z: 32}
  m_ChunkCullingBounds: {x: 0, y: 0, z: 0}
  m_MaxChunkCount: 16
  m_MaxFrameAge: 16
  m_SortOrder: 0
  m_Mode: 0
  m_DetectChunkCullingBounds: 0
  m_MaskInteraction: 0
--- !u!1 &9118100315793605350
GameObject:
  m_ObjectHideFlags: 0
  m_CorrespondingSourceObject: {fileID: 0}
  m_PrefabInstance: {fileID: 0}
  m_PrefabAsset: {fileID: 0}
  serializedVersion: 6
  m_Component:
  - component: {fileID: 5322084639915905799}
  - component: {fileID: 8901359325335179457}
  m_Layer: 31
  m_Name: TilesetDeserto
  m_TagString: Untagged
  m_Icon: {fileID: 0}
  m_NavMeshLayer: 0
  m_StaticEditorFlags: 0
  m_IsActive: 1
--- !u!4 &5322084639915905799
Transform:
  m_ObjectHideFlags: 0
  m_CorrespondingSourceObject: {fileID: 0}
  m_PrefabInstance: {fileID: 0}
  m_PrefabAsset: {fileID: 0}
  m_GameObject: {fileID: 9118100315793605350}
  m_LocalRotation: {x: 0, y: 0, z: 0, w: 1}
  m_LocalPosition: {x: 0, y: 0, z: 0}
  m_LocalScale: {x: 1, y: 1, z: 1}
  m_Children:
  - {fileID: 381915983185849888}
  m_Father: {fileID: 0}
  m_RootOrder: 0
  m_LocalEulerAnglesHint: {x: 0, y: 0, z: 0}
--- !u!156049354 &8901359325335179457
Grid:
  m_ObjectHideFlags: 0
  m_CorrespondingSourceObject: {fileID: 0}
  m_PrefabInstance: {fileID: 0}
  m_PrefabAsset: {fileID: 0}
  m_GameObject: {fileID: 9118100315793605350}
  m_Enabled: 1
  m_CellSize: {x: 0.5, y: 0.5, z: 0}
  m_CellGap: {x: 0, y: 0, z: 0}
  m_CellLayout: 0
  m_CellSwizzle: 0
--- !u!114 &-2486681365001892431
MonoBehaviour:
  m_ObjectHideFlags: 0
  m_CorrespondingSourceObject: {fileID: 0}
  m_PrefabInstance: {fileID: 0}
  m_PrefabAsset: {fileID: 0}
  m_GameObject: {fileID: 0}
  m_Enabled: 1
  m_EditorHideFlags: 0
  m_Script: {fileID: 12395, guid: 0000000000000000e000000000000000, type: 0}
  m_Name: Palette Settings
  m_EditorClassIdentifier: 
  cellSizing: 0
